/home/flow/IdeaProjects/Crypto/src/main/java/com/company/Main.java
/home/flow/IdeaProjects/Crypto/src/main/java/com/company/Crypto/CryptoException.java
/home/flow/IdeaProjects/Crypto/src/main/java/com/company/Crypto/CryptoTool.java
